START:

SIZE:			EPS_MSID_A4
#SIZE:			EPS_MSID_POSTCARD
#SIZE:			EPS_MSID_L
#SIZE:			EPS_MSID_4X6

MEDIA_TYPE: 	EPS_MTID_PLAIN
#MEDIA_TYPE: 	EPS_MTID_CDDVD
#MEDIA_TYPE:		EPS_MTID_PGPHOTO

COLOR: 			EPS_CM_COLOR
#COLOR: 			EPS_CM_MONOCHROME

#QUALITY:		EPS_PQ_DRAFT
QUALITY:		EPS_PQ_NORMAL
#QUALITY:		EPS_PQ_HIGH

BORDER:			EPS_BM_FIXED
#BORDER:			EPS_BM_BORDERLESS
#BORDER:			EPS_BM_CUSTOM

LEFT: 			140
RIGHT: 			280
TOP: 			420
BOTTOM: 		560

END:
